{
  "state": "success",
  "relations": [
      {
          "relationID": 5,
          "relationLogin": "grominet",
          "relationPicto": "img/picto/generic/profilPicto.jpg",
          "groups": [
              {
                  "groupID": 1,
                  "groupName": "test",
                  "groupPicto": "img/picto/generic/groupPicto.jpg"
              }
          ]
      },
      {
          "relationID": 3,
          "relationLogin": "jerry",
          "relationPicto": "img/picto/generic/profilPicto.jpg",
          "groups": [
              {
                  "groupID": 2,
                  "groupName": "ennemies",
                  "groupPicto": "img/picto/generic/groupPicto.jpg"
              }
          ]
      },
      {
          "relationID": 4,
          "relationLogin": "titi",
          "relationPicto": "img/picto/generic/profilPicto.jpg",
          "groups": [
              {
                  "groupID": 2,
                  "groupName": "ennemies",
                  "groupPicto": "img/picto/generic/groupPicto.jpg"
              }
          ]
      }
  ]
}