{
  "state": "success",
  "users": [
      {
          "id": 2,
          "login": "tom",
          "created_at": "2018-10-06T10:57:14.172Z",
          "updated_at": "2018-10-06T10:57:14.172Z",
          "picto": "img/picto/generic/profilPicto.jpg"
      },
      {
          "id": 3,
          "login": "jerry",
          "created_at": "2018-10-06T10:57:14.177Z",
          "updated_at": "2018-10-06T10:57:14.177Z",
          "picto": "img/picto/generic/profilPicto.jpg"
      },
      {
          "id": 4,
          "login": "titi",
          "created_at": "2018-10-06T10:57:14.185Z",
          "updated_at": "2018-10-06T10:57:14.185Z",
          "picto": "img/picto/generic/profilPicto.jpg"
      },
      {
          "id": 5,
          "login": "grominet",
          "created_at": "2018-10-06T10:57:14.193Z",
          "updated_at": "2018-10-06T10:57:14.193Z",
          "picto": "img/picto/generic/profilPicto.jpg"
      },
      {
          "id": 6,
          "login": "mickey",
          "created_at": "2018-10-06T10:57:14.204Z",
          "updated_at": "2018-10-06T10:57:14.204Z",
          "picto": "img/picto/generic/profilPicto.jpg"
      },
      {
          "id": 7,
          "login": "dingo",
          "created_at": "2018-10-06T10:57:14.205Z",
          "updated_at": "2018-10-06T10:57:14.205Z",
          "picto": "img/picto/generic/profilPicto.jpg"
      },
      {
          "id": 8,
          "login": "pluto",
          "created_at": "2018-10-06T10:57:14.206Z",
          "updated_at": "2018-10-06T10:57:14.206Z",
          "picto": "img/picto/generic/profilPicto.jpg"
      }
  ]
}