{
  "state": "success",
  "user": [
      {
          "login": "jerry",
          "created_at": "2018-10-06T10:57:14.177Z",
          "updated_at": "2018-10-06T10:57:14.177Z",
          "picto": "img/picto/generic/profilPicto.jpg"
      }
  ]
}