{
  "state": "success",
  "groups": [
      {
          "id": 1,
          "name": "friends",
          "created_at": "2018-10-06T10:57:14.287Z",
          "updated_at": "2018-10-06T10:57:14.287Z",
          "picto": "img/picto/generic/groupPicto.jpg"
      },
      {
          "id": 2,
          "name": "ennemies",
          "created_at": "2018-10-06T10:57:14.287Z",
          "updated_at": "2018-10-06T10:57:14.287Z",
          "picto": "img/picto/generic/groupPicto.jpg"
      }
  ]
}