{
  "state": "success",
  "token": "eyJhbGciOiJIUzI1NiIsInR5cCI6IkpXVCJ9.eyJpZCI6MTAsImxvZ2luIjoidGVzdDIiLCJpc0FkbWluIjpmYWxzZSwiaWF0IjoxNTM4ODIzOTA0LCJleHAiOjE1Mzk0Mjg3MDR9.zeIQlVJt26qIcG-TRvZDXMyl5NZ4ddZK5LTEQYeh7QA"
}