{
  "state": "success",
  "relations": [
      {
          "relationID": 2,
          "relationLogin": "Truc",
          "pictrelationPictoo": "img/picto/generic/profilPicto.jpg",
          "groups": []
      },
      {
        "relationID": 3,
        "relationLogin": "Bidule",
        "pictrelationPictoo": "img/picto/generic/profilPicto.jpg",
        "groups": [
          {
            "groupID": 1,
            "groupName": "Best Friends Machin & Bidule",
            "groupPicto": "img/picto/generic/groupPicto.jpg"
          },
          {
            "groupID": 2,
            "groupName": "Work",
            "groupPicto": "img/picto/generic/groupPicto.jpg"
          }
        ]
      },
      {
        "relationID": 4,
        "relationLogin": "Kekchoz",
        "pictrelationPictoo": "img/picto/generic/profilPicto.jpg",
        "groups": [
          {
            "groupID": 2,
            "groupName": "Work",
            "groupPicto": "img/picto/generic/groupPicto.jpg"
          }
        ]
    }
  ]
}